{
  "$schema": "https://developer.microsoft.com/json-schemas/spfx-build/package-solution.schema.json",
  "solution": {
    "name": "kartuves-client-side-solution",
    "id": "13ecfdeb-ecf9-4efc-89dd-5ae2f06e347e",
    "version": "1.0.0.0",
    "includeClientSideAssets": true,
    "skipFeatureDeployment": true,
    "isDomainIsolated": true
  },
  "paths": {
    "zippedPackage": "solution/kartuves.sppkg"
  }
}
